[
    {
    "codigo":"005",
    "descripcion": "Galletas Maria",
    "unidad": "Caja",
    "cantidad": "50",
    "proveedor": "La favorita"
    },
    {
    "codigo":"006",
    "descripcion": "Gaseosas Pepsi",
    "unidad": "Caja",
    "cantidad": "30",
    "proveedor": "Pepsico"
    },
    {
    "codigo":"007",
    "descripcion": "Gaseosas Coca-Cola",
    "unidad": "Caja",
    "cantidad": "60",
    "proveedor": "Coca Cola Company"
    },
    {
    "codigo":"008",
    "descripcion": "Bombones de chocolate",
    "unidad": "Caja",
    "cantidad": "10",
    "proveedor": "Dulceria dulce sabor"
    },
    {
    "codigo":"009",
    "descripcion": "Aceite Girasol",
    "unidad": "Caja",
    "cantidad": "20",
    "proveedor": "Coorporacion el Rosado"
    },
    {
    "codigo":"010",
    "descripcion": "Carne de res",
    "unidad": "Unitario",
    "cantidad": "60",
    "proveedor": "Pronaca"
    },
    {
    "codigo":"011",
    "descripcion": "Galletas Amor",
    "unidad": "Unitario",
    "cantidad": "40",
    "proveedor": "Nestle"
    },
    {
    "codigo":"012",
    "descripcion": "Pan de pascua",
    "unidad": "Unitario",
    "cantidad": "50",
    "proveedor": "Mipanaderia"
    },
    {
    "codigo":"013",
    "descripcion": "Caramelos",
    "unidad": "Unitario",
    "cantidad": "50",
    "proveedor": "Confiteca"
    },
    {
    "codigo":"014",
    "descripcion": "Gomitas Grissly",
    "unidad": "Unitario",
    "cantidad": "40",
    "proveedor": "Colombina"
    }
    ]